{
    "എഴുതുക": "write",
    "ഓടുക": "run",
    "ചാടുക": "jump",
    "പാടുക": "sing",
    "ചിരിക്കുക": "smile",
    "കഴിക്കുക": "eat",
    "കളിക്കുക": "play",
    "ചിന്തിക്കുക": "think",
    "കുളിക്കുക" : "bath",
    "നടക്കുക" : "walk",
    "കുടിക്കുക": "drink",
    "വരുക": "come",
    "പഠിക്കുക": "study",
    "കാണുക":"see",
    "കടിക്കുക":"bite",
    "മത്സരിക്കുക":"compete",
    "വിറക്കുക":"shiver",
    "പറയുക":"tell",
    "ചോദിക്കുക":"ask",
    "ഉറങ്ങുക":"sleep",
    "കരയുക":"cry",
    "അനങ്ങുക":"move",
    "പേടിക്കുക":"fear",
    "ഇഴയുക":"crawl",
    "നീന്തുക":"swim",
    "മുറിക്കുക":"cut",
    "പറക്കുക":"fly",
    "മറക്കുക":"forget",
    "യാചിക്കുക":"beg",
    "ഓർക്കുക":"remember",
    "സ്നേഹിക്കുക":"love",
    "നശിക്കുക":"destroy",
    "ഇരിക്കുക":"sit",
    "പ്രാർത്ഥിക്കുക":"pray",
    "പൊട്ടിക്കുക":"break",
    "വായിക്കുക":"read",
    "സ്വീകരിക്കുക":"welcome",
    "നിരീക്ഷിക്കുക":"observe",
    "വീഴുക": "fall",
    "നിർമ്മിക്കുക":"make",
    "ഊതുക":"blow",
    "കേൾക്കുക":"hear",
    "പ്രവർത്തിക്കുക":"work",
    "പെരുമാറുക":"behave",
    "ക്ഷണിക്കുക":"invite",
    "സങ്കൽപ്പിക്കുക":"imagine",
    "വാങ്ങുക":"buy",
    "ചെയ്യുക":"do",
    "ശുദ്ധീകരിക്കുക": "purify",
    "ശ്വസിക്കുക": "breathe",
    "അലക്കുക": "wash",
     "പോകുക": "go",
    "ആക്രമിക്കുക": "attack",
    "വരയ്ക്കുക": "draw",
    "കുരയ്ക്കുക": "bark",
    "അഭിനയിക്കുക": "act",
    "ശല്യപ്പെടുത്തുക": "disturb",
    "വിഷമിക്കുക":"worry",
    "കുളിച്ചു":"shower",
    "ഉറപ്പിക്കുക": "fix",
    "കലർത്തുക": "mix",
    "കലഹിക്കുക": "mess",
    "തള്ളുക": "push",
    "ഓടിക്കുക": "drive",
    "തരുക": "give",
    "അടിക്കുക": "Hit",
    "അതിക്രമിക്കുക": "Trespass",
    "അതിജീവിക്കുക": "Survive",
    "അധികാരപ്പെടുത്തുക": "Authorize",
    "അധ്വാനിക്കുക": "work hard",
    "അനങ്ങുക": "move ",
    "അനുഗ്രഹിക്കുക": "bless",
    "അനുഭവിക്കുക": "experience",
    "അനുസരിക്കുക": "obey",
    "അന്തരിക്കുക": "Die",
    "അന്വേഷിക്കുക": "investigate",
    "അപേക്ഷിക്കുക": "Apply",
    "അഭ്യർഥിക്കുക": "request",
    "അയയ്ക്കുക": "send",
    "അവകാശപ്പെടുക": "claim",
    "അവഗണിക്കുക": "Ignore",
    "അവശേഷിക്കുക": "remain",
    "അവസാനിക്കുക": "End",
    "ആഗ്രഹിക്കുക": "wish for",
    "ആഘോഷിക്കുക": "celebrate",
    "ആദരിക്കുക": "respect",
    "ആരംഭിക്കുക": "Begin",
    "ആവർത്തിക്കുക": "Repeat",
    "ആവശ്യപ്പെടുക": "Demand",
    "ബന്ധിപ്പിക്കുക": "connect",
    "ആശ്രയിക്കുക": "Trust",
    "ആസ്വദിക്കുക": "enjoy",
    "ഇടപെടുക": "interfere",
    "ഇരട്ടിക്കുക": "Double",
    "ഇല്ലാതാക്കുക": "delete",
    "അര്ഹിക്കുക": "deserve",
    "ഉത്പാദിപ്പിക്കുക": "produce",
    "നല്കുക": "Provide",
    "ഉപദേശിക്കുക": "Advise",
    "ഉപയോഗിക്കുക": "Use",
    "ഉപസംഹരിക്കുക": "conclude",
    "ഉപേക്ഷിക്കുക": "Leave",
    "ഉയരുക": "Rise",
    "ഉപഭോഗിക്കുക": "Consume",
    "ഉറപ്പിക്കുക": "confirm",
    "അംഗീകരിക്കുക": "accept",
    "വിലയിരുത്തുക": "Evaluate",
    "ഏകീകരിക്കുക": "Consolidate",
    "ഏർപ്പെടുക": "get involved",
    "ചികിത്സിക്കുക": "treat",
    "ചിന്തിക്കുക": "Think",
    "ചുരുക്കുക": "shorten",
    "ജനിക്കുക": "be born",
    "ജയിക്കുക": "win ",
    "ജീവിക്കുക": "live",
    "കണ്ടുപിടിക്കുക": "to discover",
    "കയർക്കുക": "dispute",
    "കയറുക": "to climb",
    "കലാശിക്കുക": "result in",
    "കൽപിക്കുക": "to command",
    "കഷ്ടപ്പെടുക": "to suffer",
    "കിടക്കുക": "to lay",
    "കീഴടങ്ങുക": "to surrender",
    "കീറുക": "to tear",
    "കുതിക്കുക": "to leap",
    "കുറ്റപ്പെടുത്തുക": "blame",
    "കൂട്ടിമുട്ടുക": "collide",
    "കൂപ്പുകുത്തുക": "descend",
    "കെട്ടിപ്പടുക്കുക": "to establish\\ build",
    "കേന്ദ്രീകരിക്കുക": "concentrate",
    "കേൾക്കുക": "hear",
    "കൈക്കൊള്ളുക": "accept",
    "കൈപ്പറ്റുക": "acquire",
    "കൈമാറുക": "hand over",
    "കൈവരിക്കുക": "achieve",
    "കൈവിടുക": "give up",
    "ക്രോഡീകരിക്കുക": "codify",
    "ക്ഷണിക്കുക": "invite",
    "നേടുക": "get/ achieve",
    "നേരിടുക": "encounter/confront",
    "നോക്കുക": "look",
    "പകർത്തുക": "copy",
    "പങ്കിടുക": "share",
    "പങ്കെടുക്കുക": "participate",
    "പരാമർശിക്കുക": "mention",
    "പരിഗണിക്കുക": "consider",
    "പരിചരിക്കുക": "nurse",
    "പരിപാലിക്കുക": "take care",
    "ഉപയോഗപ്പെടുത്തുക": "redound",
 "പരിശോധിക്കുക": "examine",
 "പരിശ്രമിക്കുക": "effort",
 "പരിഷ്കരിക്കുക": "change",
 "പരിഹരിക്കുക": "solve",
 "പരിഹസിക്കുക": "ridicule",
 "പരീക്ഷിക്കുക": "attempt",
 "പാലിക്കുക": "obey",
 "പിടിക്കുക": "catch",
 "പിണങ്ങുക": "wrangle",
 "പിന്തുടരുക": "follow",
 "പിൻമാറുക": "recede",
 "പിരിയുക": "seperate",
 "പിളരുക": "crack",
 "പുകഴ്ത്തുക": "praise",
 "പുലർത്തുക": "maintain",
 "പ്രകടിപ്പിക്കുക": "express",
 "ഞെട്ടുക": "shock",
 "തകരുക": "break down",
 "തങ്ങുക": "stay",
 "തടയുക": "prevent",
 "തണുക്കുക": "cool down",
 "തരുക": "give",
 "താങ്ങുക": "support",
 "താണ്ടുക": "traverse",
 "താമസിക്കുക": "stay",
 "താഴുക": "get down",
 "തികയുക": "complete",
 "തിരക്കുക": "enquire",
 "തിരയുക": "search",
 "തിരസ്കരിക്കുക": "reject",
 "തിരിക്കുക": "to turn",
 "തിരിച്ചറിയുക": "identify",
 "തിരിയുക": "rotate",
 "തീരുക": "end",
 "തീരുമാനിക്കുക": "decide",
 "തീർക്കുക": "to finish",
 "തുടരുക": "continue",
 "തുനിയുക": "dare",
 "തുറക്കുക": "open",
 "തെരയുക": "search",
 "തെളിയുക": "prove",
 "തേടുക": "search",
 "തോന്നുക": "feel",
 "തോൽക്കുക": "fail",
 "ദഹിക്കുക": "digest",
 "ദാഹിക്കുക": "thirsty",
 "ദീർഘിക്കുക": "elongate",
 "ധരിക്കുക": "wear",
 "ധിക്കരിക്കുക": "disobey",
 "നടപ്പാകുക": "impliment",
 "നയിക്കുക": "to lead",
 "നൽകുക": "give",
 "നവീകരിക്കുക": "renovate",
 "നശിക്കുക": "perish",
 "നഷ്ടപ്പെടുക": "misplaced",
 "നികത്തുക": "fill up",
 "നിക്ഷേപിക്കുക": "deposit",
 "നിയന്ത്രിക്കുക": "control",
 "നിരസിക്കുക": "decline",
 "നിരാകരിക്കുക": "reject",
 "നിരീക്ഷിക്കുക": "observe",
 "നിരോധിക്കുക": "ban",
 "നിർണയിക്കുക": "determine",
 "നിർമിക്കുക": "make",
 "നിശ്ചയിക്കുക": "assign",
 "നിഷേധിക്കുക": "deny",
 "തിരഞ്ഞെടുക്കുക": "choose",
 "തിരിച്ചടിക്കുക": "repulse",
 "നിയമിക്കുക": "appoint",
 "നിർദേശിക്കുക": "suggest",
 "നീക്കുക": "remove",
 "പിന്താങ്ങുക": "support",
 "പ്രചരിക്കുക": "prevail",
 "പ്രതികരിക്കുക": "respond",
 "പ്രതിഷേധിക്കുക": "protest",
 "പ്രവർത്തിക്കുക": "act",
 "പ്രസിദ്ധീകരിക്കുക": "publish",
 "ബഹിഷ്കരിക്കുക": "boycott",
 "ബഹുമാനിക്കുക": "respect",
 "ഭരിക്കുക": "rule",
 "മത്സരിക്കുക": "compete",
 "രൂപീകരിക്കുക": "conceive",
 "ലഭിക്കുക": "obtain",
 "വർദ്ധിക്കുക": "increase",
 "വികസിക്കുക": "develop",
 "വിനിയോഗിക്കുക": "utilize",
 "വിപുലീകരിക്കുക": "expand",
 "വിലക്കുക": "forbid",
 "വിൽക്കുക": "sell",
 "സന്ദർശിക്കുക": "visit",
 "സമാഹരിക്കുക": "aggregate",
 "സമീപിക്കുക": "approach",
 "സംവദിക്കുക": "commune",
 "സംസാരിക്കുക": "talk",
 "സാക്ഷാത്കരിക്കുക": "realize",
 "സൂചിപ്പിക്കുക": "indicate",
 "സൃഷ്ടിക്കുക": "create",
 "സേവിക്കുക": "serve",
 "സ്ഥാപിക്കുക": "establish",
 "സ്വീകരിക്കുക": "receive",
 "റദ്ദാക്കുക": "repeal",
 "അറിയുക": "know",
 "വേണം": "want",
 "നിരീക്ഷിക്കുക" : "watch"
    
}